Forecasting Principles and Practice
…
── Conflicts ───────────────────────────────────────────────── fpp3_conflicts ──
✖ lubridate::date()    masks base::date()
✖ dplyr::filter()      masks stats::filter()
✖ tsibble::intersect() masks base::intersect()
✖ tsibble::interval()  masks lubridate::interval()
✖ dplyr::lag()         masks stats::lag()
✖ tsibble::setdiff()   masks base::setdiff()
✖ tsibble::union()     masks base::union()

Example of a tsibble object:

global_economy

# A tsibble: 15,150 x 9 [1Y]
# Key:       Country [263]
   Country     Code   Year         GDP Growth   CPI Imports Exports Population
   <fct>       <fct> <dbl>       <dbl>  <dbl> <dbl>   <dbl>   <dbl>      <dbl>
 1 Afghanistan AFG    1960  537777811.     NA    NA    7.02    4.13    8996351
 2 Afghanistan AFG    1961  548888896.     NA    NA    8.10    4.45    9166764
 3 Afghanistan AFG    1962  546666678.     NA    NA    9.35    4.88    9345868
 4 Afghanistan AFG    1963  751111191.     NA    NA   16.9     9.17    9533954
 5 Afghanistan AFG    1964  800000044.     NA    NA   18.1     8.89    9731361
 6 Afghanistan AFG    1965 1006666638.     NA    NA   21.4    11.3     9938414
 7 Afghanistan AFG    1966 1399999967.     NA    NA   18.6     8.57   10152331
 8 Afghanistan AFG    1967 1673333418.     NA    NA   14.2     6.77   10372630
 9 Afghanistan AFG    1968 1373333367.     NA    NA   15.2     8.90   10604346
10 Afghanistan AFG    1969 1408888922.     NA    NA   15.0    10.1    10854428
# ℹ 15,140 more rows
…
There is a key variable, country, and 263 countries in the dataset

there are 263 separate time series

the key variable determines the different time series

An index variable is the variable that indexes the time series (e.g. year)

All the other variables are measured variables

Another example of tsibble object:

tourism

# A tsibble: 24,320 x 5 [1Q]
# Key:       Region, State, Purpose [304]
   Quarter Region   State           Purpose  Trips
     <qtr> <chr>    <chr>           <chr>    <dbl>
 1 1998 Q1 Adelaide South Australia Business  135.
 2 1998 Q2 Adelaide South Australia Business  110.
 3 1998 Q3 Adelaide South Australia Business  166.
 4 1998 Q4 Adelaide South Australia Business  127.
 5 1999 Q1 Adelaide South Australia Business  137.
 6 1999 Q2 Adelaide South Australia Business  200.
 7 1999 Q3 Adelaide South Australia Business  169.
 8 1999 Q4 Adelaide South Australia Business  134.
 9 2000 Q1 Adelaide South Australia Business  154.
10 2000 Q2 Adelaide South Australia Business  169.
# ℹ 24,310 more rows
…
prison <- readr::read_csv("data/prison_population.csv")

Rows: 3072 Columns: 6
── Column specification ────────────────────────────────────────────────────────
Delimiter: ","
chr  (4): state, gender, legal, indigenous
dbl  (1): count
date (1): date

ℹ Use `spec()` to retrieve the full column specification for this data.
ℹ Specify the column types or set `show_col_types = FALSE` to quiet this message.

prison

# A tibble: 3,072 × 6
   date       state gender legal     indigenous count
   <date>     <chr> <chr>  <chr>     <chr>      <dbl>
 1 2005-03-01 ACT   Female Remanded  ATSI           0
 2 2005-03-01 ACT   Female Remanded  Other          2
 3 2005-03-01 ACT   Female Sentenced ATSI           0
 4 2005-03-01 ACT   Female Sentenced Other          0
 5 2005-03-01 ACT   Male   Remanded  ATSI           7
 6 2005-03-01 ACT   Male   Remanded  Other         58
 7 2005-03-01 ACT   Male   Sentenced ATSI           0
 8 2005-03-01 ACT   Male   Sentenced Other          0
 9 2005-03-01 NSW   Female Remanded  ATSI          51
10 2005-03-01 NSW   Female Remanded  Other        131
# ℹ 3,062 more rows
…
prison |> 
  mutate(Quarter = yearquarter(date)) |> 
  select(-date) |> 
  as_tsibble(
    index = Quarter,
    key = c(state, gender, legal, indigenous)
  )

# A tsibble: 3,072 x 6 [1Q]
# Key:       state, gender, legal, indigenous [64]
   state gender legal    indigenous count Quarter
   <chr> <chr>  <chr>    <chr>      <dbl>   <qtr>
 1 ACT   Female Remanded ATSI           0 2005 Q1
 2 ACT   Female Remanded ATSI           1 2005 Q2
 3 ACT   Female Remanded ATSI           0 2005 Q3
 4 ACT   Female Remanded ATSI           0 2005 Q4
 5 ACT   Female Remanded ATSI           1 2006 Q1
 6 ACT   Female Remanded ATSI           1 2006 Q2
 7 ACT   Female Remanded ATSI           1 2006 Q3
 8 ACT   Female Remanded ATSI           0 2006 Q4
 9 ACT   Female Remanded ATSI           0 2007 Q1
10 ACT   Female Remanded ATSI           1 2007 Q2
# ℹ 3,062 more rows

Australian Pharmaceutical Benefits Scheme

PBS

# A tsibble: 67,596 x 9 [1M]
# Key:       Concession, Type, ATC1, ATC2 [336]
        Month Concession   Type    ATC1  ATC1_desc ATC2  ATC2_desc Scripts  Cost
        <mth> <chr>        <chr>   <chr> <chr>     <chr> <chr>       <dbl> <dbl>
 1 1991 juil. Concessional Co-pay… A     Alimenta… A01   STOMATOL…   18228 67877
 2  1991 août Concessional Co-pay… A     Alimenta… A01   STOMATOL…   15327 57011
 3 1991 sept. Concessional Co-pay… A     Alimenta… A01   STOMATOL…   14775 55020
 4  1991 oct. Concessional Co-pay… A     Alimenta… A01   STOMATOL…   15380 57222
 5  1991 nov. Concessional Co-pay… A     Alimenta… A01   STOMATOL…   14371 52120
 6  1991 déc. Concessional Co-pay… A     Alimenta… A01   STOMATOL…   15028 54299
 7 1992 janv. Concessional Co-pay… A     Alimenta… A01   STOMATOL…   11040 39753
 8 1992 févr. Concessional Co-pay… A     Alimenta… A01   STOMATOL…   15165 54405
 9  1992 mars Concessional Co-pay… A     Alimenta… A01   STOMATOL…   16898 61108
10  1992 avr. Concessional Co-pay… A     Alimenta… A01   STOMATOL…   18141 65356
# ℹ 67,586 more rows

PBS |> 
  filter(ATC2 == "A10") |> 
  select(Month, Concession, Type, Cost) |> 
  summarise(TotalC = sum(Cost))

# A tsibble: 204 x 2 [1M]
        Month  TotalC
        <mth>   <dbl>
 1 1991 juil. 3526591
 2  1991 août 3180891
 3 1991 sept. 3252221
 4  1991 oct. 3611003
 5  1991 nov. 3565869
 6  1991 déc. 4306371
 7 1992 janv. 5088335
 8 1992 févr. 2814520
 9  1992 mars 2985811
10  1992 avr. 3204780
# ℹ 194 more rows

No need to group by month, since this in inherent to the index variable.

a10 <- PBS |> 
  filter(ATC2 == "A10") |> 
  select(Month, Concession, Type, Cost) |> 
  summarise(TotalC = sum(Cost)) |> 
  mutate(Cost = TotalC / 1e6)

Olympic running

olympic_running

# A tsibble: 312 x 4 [4Y]
# Key:       Length, Sex [14]
    Year Length Sex    Time
   <int>  <int> <chr> <dbl>
 1  1896    100 men    12  
 2  1900    100 men    11  
 3  1904    100 men    11  
 4  1908    100 men    10.8
 5  1912    100 men    10.8
 6  1916    100 men    NA  
 7  1920    100 men    10.8
 8  1924    100 men    10.6
 9  1928    100 men    10.8
10  1932    100 men    10.3
# ℹ 302 more rows
…
ansett

# A tsibble: 7,407 x 4 [1W]
# Key:       Airports, Class [30]
       Week Airports Class    Passengers
     <week> <chr>    <chr>         <dbl>
 1 1989 W28 ADL-PER  Business        193
 2 1989 W29 ADL-PER  Business        254
 3 1989 W30 ADL-PER  Business        185
 4 1989 W31 ADL-PER  Business        254
 5 1989 W32 ADL-PER  Business        191
 6 1989 W33 ADL-PER  Business        136
 7 1989 W34 ADL-PER  Business          0
 8 1989 W35 ADL-PER  Business          0
 9 1989 W36 ADL-PER  Business          0
10 1989 W37 ADL-PER  Business          0
# ℹ 7,397 more rows
…
melsyd_economy <- ansett |> 
  filter(Airports == "MEL-SYD") |> 
  select(-Airports)
melsyd_economy

# A tsibble: 740 x 3 [1W]
# Key:       Class [3]
       Week Class    Passengers
     <week> <chr>         <dbl>
 1 1989 W28 Business       1524
 2 1989 W29 Business       2212
 3 1989 W30 Business       1777
 4 1989 W31 Business       2552
 5 1989 W32 Business       1889
 6 1989 W33 Business        851
 7 1989 W34 Business          0
 8 1989 W35 Business          0
 9 1989 W36 Business          0
10 1989 W37 Business          0
# ℹ 730 more rows
…
vic_elec

# A tsibble: 52,608 x 5 [30m] <Australia/Melbourne>
   Time                Demand Temperature Date       Holiday
   <dttm>               <dbl>       <dbl> <date>     <lgl>  
 1 2012-01-01 00:00:00  4383.        21.4 2012-01-01 TRUE   
 2 2012-01-01 00:30:00  4263.        21.0 2012-01-01 TRUE   
 3 2012-01-01 01:00:00  4049.        20.7 2012-01-01 TRUE   
 4 2012-01-01 01:30:00  3878.        20.6 2012-01-01 TRUE   
 5 2012-01-01 02:00:00  4036.        20.4 2012-01-01 TRUE   
 6 2012-01-01 02:30:00  3866.        20.2 2012-01-01 TRUE   
 7 2012-01-01 03:00:00  3694.        20.1 2012-01-01 TRUE   
 8 2012-01-01 03:30:00  3562.        19.6 2012-01-01 TRUE   
 9 2012-01-01 04:00:00  3433.        19.1 2012-01-01 TRUE   
10 2012-01-01 04:30:00  3359.        19.0 2012-01-01 TRUE   
# ℹ 52,598 more rows
…
The global downward trend is due to a decrease in Q4.

holidays <- tourism |>
  filter(Purpose == "Holiday") |>
  group_by(State) |>
  summarise(Trips = sum(Trips))

holidays

# A tsibble: 640 x 3 [1Q]
# Key:       State [8]
   State Quarter Trips
   <chr>   <qtr> <dbl>
 1 ACT   1998 Q1  196.
 2 ACT   1998 Q2  127.
 3 ACT   1998 Q3  111.
 4 ACT   1998 Q4  170.
 5 ACT   1999 Q1  108.
 6 ACT   1999 Q2  125.
 7 ACT   1999 Q3  178.
 8 ACT   1999 Q4  218.
 9 ACT   2000 Q1  158.
10 ACT   2000 Q2  155.
# ℹ 630 more rows
…
2.6 Scatter plots

vic_elec_day_type <- vic_elec |> 
  filter(year(Time) == 2014) |> 
  mutate(Day_type = case_when(
    Holiday ~ "Holiday",
    wday(Date) %in% 2:6 ~ "Weekday",
    .default = "Weekend"))

vic_elec_day_type

# A tsibble: 17,520 x 6 [30m] <Australia/Melbourne>
   Time                Demand Temperature Date       Holiday Day_type
   <dttm>               <dbl>       <dbl> <date>     <lgl>   <chr>   
 1 2014-01-01 00:00:00  4092.        18.7 2014-01-01 TRUE    Holiday 
 2 2014-01-01 00:30:00  4198.        18.1 2014-01-01 TRUE    Holiday 
 3 2014-01-01 01:00:00  3915.        18.2 2014-01-01 TRUE    Holiday 
 4 2014-01-01 01:30:00  3673.        17.9 2014-01-01 TRUE    Holiday 
 5 2014-01-01 02:00:00  3498.        17.6 2014-01-01 TRUE    Holiday 
 6 2014-01-01 02:30:00  3339.        16.8 2014-01-01 TRUE    Holiday 
 7 2014-01-01 03:00:00  3204.        16.3 2014-01-01 TRUE    Holiday 
 8 2014-01-01 03:30:00  3100.        16.6 2014-01-01 TRUE    Holiday 
 9 2014-01-01 04:00:00  3039.        16.6 2014-01-01 TRUE    Holiday 
10 2014-01-01 04:30:00  3012.        16.7 2014-01-01 TRUE    Holiday 
# ℹ 17,510 more rows
…
2.7 Lag plots

new_production <- aus_production |> 
  filter(year(Quarter) >= 1992)
new_production

# A tsibble: 74 x 7 [1Q]
   Quarter  Beer Tobacco Bricks Cement Electricity   Gas
     <qtr> <dbl>   <dbl>  <dbl>  <dbl>       <dbl> <dbl>
 1 1992 Q1   443    5777    383   1289       38332   117
 2 1992 Q2   410    5853    404   1501       39774   151
 3 1992 Q3   420    6416    446   1539       42246   175
 4 1992 Q4   532    5825    420   1568       38498   129
 5 1993 Q1   433    5724    394   1450       39460   116
 6 1993 Q2   421    6036    462   1668       41356   149
 7 1993 Q3   410    6570    475   1648       42949   163
 8 1993 Q4   512    5675    443   1863       40974   138
 9 1994 Q1   449    5311    421   1468       40162   127
10 1994 Q2   381    5717    475   1755       41199   159
# ℹ 64 more rows
…
google_2015 <- gafa_stock |> 
  filter(Symbol == "GOOG", year(Date) == 2015) |> 
  select(Date, Close)
google_2015

# A tsibble: 252 x 2 [!]
   Date       Close
   <date>     <dbl>
 1 2015-01-02  522.
 2 2015-01-05  511.
 3 2015-01-06  499.
 4 2015-01-07  498.
 5 2015-01-08  500.
 6 2015-01-09  493.
 7 2015-01-12  490.
 8 2015-01-13  493.
 9 2015-01-14  498.
10 2015-01-15  499.
# ℹ 242 more rows
…
google_2015 |> 
  ACF(Close, lag_max = 100)

Warning: Provided data has an irregular interval, results should be treated
with caution. Computing ACF by observation.

# A tsibble: 100 x 2 [1]
        lag   acf
   <cf_lag> <dbl>
 1        1 0.982
 2        2 0.959
 3        3 0.937
 4        4 0.918
 5        5 0.901
 6        6 0.883
 7        7 0.865
 8        8 0.849
 9        9 0.834
10       10 0.818
# ℹ 90 more rows
…
Multiplicative decomposition more prevalent with economic series

Alternative: use a Box-Cox transformation, and then use additive decomposition

Logs turn multiplicative relationship into an additive relationship

\(y_t=S_t \times T_t \times R_t\) –> \(log(y_t)=log(S_t)+log(T_t)+log(R_t)\)

us_retail_employment <- us_employment |> 
  filter(year(Month) >= 1990, Title == "Retail Trade") |> 
  select(-Series_ID)
us_retail_employment

# A tsibble: 357 x 3 [1M]
        Month Title        Employed
        <mth> <chr>           <dbl>
 1 1990 janv. Retail Trade   13256.
 2 1990 févr. Retail Trade   12966.
 3  1990 mars Retail Trade   12938.
 4  1990 avr. Retail Trade   13012.
 5   1990 mai Retail Trade   13108.
 6  1990 juin Retail Trade   13183.
 7 1990 juil. Retail Trade   13170.
 8  1990 août Retail Trade   13160.
 9 1990 sept. Retail Trade   13113.
10  1990 oct. Retail Trade   13185.
# ℹ 347 more rows
…
us_retail_employment |> 
  model(stl = STL(Employed))

# A mable: 1 x 1
      stl
  <model>
1   <STL>

dcmp <- us_retail_employment |> 
  model(stl = STL(Employed))
components(dcmp)

# A dable: 357 x 7 [1M]
# Key:     .model [1]
# :        Employed = trend + season_year + remainder
   .model      Month Employed  trend season_year remainder season_adjust
   <chr>       <mth>    <dbl>  <dbl>       <dbl>     <dbl>         <dbl>
 1 stl    1990 janv.   13256. 13288.      -33.0      0.836        13289.
 2 stl    1990 févr.   12966. 13269.     -258.     -44.6          13224.
 3 stl     1990 mars   12938. 13250.     -290.     -22.1          13228.
 4 stl     1990 avr.   13012. 13231.     -220.       1.05         13232.
 5 stl      1990 mai   13108. 13211.     -114.      11.3          13223.
 6 stl     1990 juin   13183. 13192.      -24.3     15.5          13207.
 7 stl    1990 juil.   13170. 13172.      -23.2     21.6          13193.
 8 stl     1990 août   13160. 13151.       -9.52    17.8          13169.
 9 stl    1990 sept.   13113. 13131.      -39.5     22.0          13153.
10 stl     1990 oct.   13185. 13110.       61.6     13.2          13124.
# ℹ 347 more rows
…
us_retail_employment |> 
  model(STL(Employed ~ season(window = 5))) |> 
  components()

# A dable: 357 x 7 [1M]
# Key:     .model [1]
# :        Employed = trend + season_year + remainder
   .model              Month Employed  trend season_year remainder season_adjust
   <chr>               <mth>    <dbl>  <dbl>       <dbl>     <dbl>         <dbl>
 1 STL(Employed … 1990 janv.   13256. 13294.       -2.16    -36.2         13258.
 2 STL(Employed … 1990 févr.   12966. 13273.     -260.      -47.3         13226.
 3 STL(Employed …  1990 mars   12938. 13252.     -289.      -25.1         13227.
 4 STL(Employed …  1990 avr.   13012. 13231.     -221.        2.25        13233.
 5 STL(Employed …   1990 mai   13108. 13209.     -111.        9.96        13219.
 6 STL(Employed …  1990 juin   13183. 13188.      -18.8      14.1         13202.
 7 STL(Employed … 1990 juil.   13170. 13166.      -17.9      22.1         13188.
 8 STL(Employed …  1990 août   13160. 13144.       -2.53     18.1         13162.
 9 STL(Employed … 1990 sept.   13113. 13122.      -34.0      25.3         13147.
10 STL(Employed …  1990 oct.   13185. 13100.       54.3      30.7         13131.
# ℹ 347 more rows

us_retail_employment |> 
  model(STL(
    Employed ~ trend(window = 15) + 
      season(window = "periodic"),
    robust = TRUE
  )) |> 
  components()

# A dable: 357 x 7 [1M]
# Key:     .model [1]
# :        Employed = trend + season_year + remainder
   .model              Month Employed  trend season_year remainder season_adjust
   <chr>               <mth>    <dbl>  <dbl>       <dbl>     <dbl>         <dbl>
 1 "STL(Employed… 1990 janv.   13256. 13247.      -80.8      89.9         13337.
 2 "STL(Employed… 1990 févr.   12966. 13235.     -273.        4.72        13240.
 3 "STL(Employed…  1990 mars   12938. 13223.     -258.      -26.5         13197.
 4 "STL(Employed…  1990 avr.   13012. 13211.     -186.      -12.6         13198.
 5 "STL(Employed…   1990 mai   13108. 13198.      -88.4      -1.74        13197.
 6 "STL(Employed…  1990 juin   13183. 13186.       -8.47      5.67        13191.
 7 "STL(Employed… 1990 juil.   13170. 13173.      -10.9       8.17        13181.
 8 "STL(Employed…  1990 août   13160. 13157.      -11.5      13.5         13171.
 9 "STL(Employed… 1990 sept.   13113. 13142.      -88.0      59.2         13201.
10 "STL(Employed…  1990 oct.   13185. 13116.       39.0      29.8         13146.
# ℹ 347 more rows
…
Robustness weights based on remainder

Default season: window=13

Default trend: window=nextodd(ceiling((1.5*period)/(1-(1.5/s.window)))

Chapter 4 - Time series features

4.1 Some simple statistics

tourism |> 
  features(Trips, list(mean = mean)) |> 
  arrange(mean)

# A tibble: 304 × 4
   Region          State              Purpose   mean
   <chr>           <chr>              <chr>    <dbl>
 1 Kangaroo Island South Australia    Other    0.340
 2 MacDonnell      Northern Territory Other    0.449
 3 Wilderness West Tasmania           Other    0.478
 4 Barkly          Northern Territory Other    0.632
 5 Clare Valley    South Australia    Other    0.898
 6 Barossa         South Australia    Other    1.02 
 7 Kakadu Arnhem   Northern Territory Other    1.04 
 8 Lasseter        Northern Territory Other    1.14 
 9 Wimmera         Victoria           Other    1.15 
10 MacDonnell      Northern Territory Visiting 1.18 
# ℹ 294 more rows

tourism |> 
  features(Trips, quantile)

# A tibble: 304 × 8
   Region         State             Purpose    `0%`  `25%`   `50%`  `75%` `100%`
   <chr>          <chr>             <chr>     <dbl>  <dbl>   <dbl>  <dbl>  <dbl>
 1 Adelaide       South Australia   Busine…  68.7   134.   153.    177.   242.  
 2 Adelaide       South Australia   Holiday 108.    135.   154.    172.   224.  
 3 Adelaide       South Australia   Other    25.9    43.9   53.8    62.5  107.  
 4 Adelaide       South Australia   Visiti… 137.    179.   206.    229.   270.  
 5 Adelaide Hills South Australia   Busine…   0       0      1.26    3.92  28.6 
 6 Adelaide Hills South Australia   Holiday   0       5.77   8.52   14.1   35.8 
 7 Adelaide Hills South Australia   Other     0       0      0.908   2.09   8.95
 8 Adelaide Hills South Australia   Visiti…   0.778   8.91  12.2    16.8   81.1 
 9 Alice Springs  Northern Territo… Busine…   1.01    9.13  13.3    18.5   34.1 
10 Alice Springs  Northern Territo… Holiday   2.81   16.9   31.5    44.8   76.5 
# ℹ 294 more rows
…
